<?xml version="1.0" encoding="UTF-8"?>
<svg width="70px" height="25px" viewBox="0 0 70 25" version="1.1" xmlns="http://www.w3.org/2000/svg" xmlns:xlink="http://www.w3.org/1999/xlink">
    <!-- Generator: Sketch 41.2 (35397) - http://www.bohemiancoding.com/sketch -->
    <title>frisbuy_logo_gray</title>
    <desc>Created with Sketch.</desc>
    <defs>
        <linearGradient x1="82.4227335%" y1="15.0688959%" x2="28.2655821%" y2="100%" id="linearGradient-1">
            <stop stop-color="#0063A2" offset="0%"></stop>
            <stop stop-color="#198ABA" offset="62.0071213%"></stop>
            <stop stop-color="#28A1C9" offset="100%"></stop>
        </linearGradient>
        <linearGradient x1="82.4227335%" y1="15.0688959%" x2="28.2655821%" y2="100%" id="linearGradient-2">
            <stop stop-color="#0063A2" offset="0%"></stop>
            <stop stop-color="#11A8DA" offset="100%"></stop>
        </linearGradient>
    </defs>
    <g id="Page-1" stroke="none" stroke-width="1" fill="none" fill-rule="evenodd">
        <g id="Artboard-3" transform="translate(-99.000000, -197.000000)">
            <g id="frisbuy_logo_gray" transform="translate(99.000000, 197.000000)">
                <g id="frisbuy_logo">
                    <g id="Page-1">
                        <g id="Artboard">
                            <g id="frisbuy_logo">
                                <circle id="Combined-Shape" fill="url(#linearGradient-1)" cx="61.8448276" cy="7.84482759" r="7.84482759"></circle>
                                <circle id="Combined-Shape" fill="url(#linearGradient-2)" transform="translate(62.000000, 8.000000) scale(-1, -1) translate(-62.000000, -8.000000) " cx="62" cy="8" r="5"></circle>
                                <g id="fblogo2" fill="#808080">
                                    <g id="_x31_">
                                        <path d="M15.8471869,8.58170915 C14.0508167,8.58170915 12.2544465,9.06746627 10.9027223,10.0029985 C10.600363,10.2188906 10.3157895,10.4527736 10.0490018,10.7046477 L10.0490018,8.58170915 L9.28421053,8.58170915 L3.16588022,8.58170915 L3.16588022,5.66716642 C3.16588022,3.72413793 3.89509982,2.48275862 4.83774955,1.96101949 C5.17568058,1.78110945 5.53139746,1.67316342 5.86932849,1.67316342 C6.22504537,1.67316342 6.58076225,1.76311844 6.90090744,1.94302849 C7.80798548,2.44677661 8.50163339,3.67016492 8.50163339,5.66716642 L10.0134301,5.66716642 C10.031216,3.05847076 8.98185118,1.36731634 7.64791289,0.611694153 C7.09655172,0.305847076 6.49183303,0.143928036 5.86932849,0.143928036 C5.2646098,0.143928036 4.65989111,0.305847076 4.0907441,0.611694153 C2.72123412,1.38530735 1.63629764,3.07646177 1.63629764,5.66716642 L1.63629764,8.56371814 L0.124500907,8.56371814 L0.124500907,10.0929535 L1.65408348,10.0929535 L1.65408348,17.4512744 L3.16588022,17.4512744 L3.16588022,10.1109445 L8.53720508,10.1109445 L8.53720508,17.4872564 L10.0490018,17.4872564 L10.0490018,14.3388306 C10.0490018,13.0074963 10.7248639,11.982009 11.7564428,11.2623688 C12.6813067,10.6326837 13.8729583,10.2548726 15.1179673,10.1469265 L15.1179673,17.4872564 L16.6297641,17.4872564 L16.6297641,8.58170915 L15.8471869,8.58170915 L15.8471869,8.58170915 Z" id="Shape"></path>
                                        <path d="M15.8294011,4.46176912 C15.046824,4.46176912 14.4065336,5.10944528 14.4065336,5.90104948 C14.4065336,6.7826087 15.2068966,7.48425787 16.1139746,7.30434783 C16.6653358,7.1964018 17.1099819,6.74662669 17.2166969,6.18890555 C17.3945554,5.27136432 16.7009074,4.46176912 15.8294011,4.46176912 Z" id="Shape"></path>
                                        <path d="M41.0497278,8.56371814 L41.0497278,13.6371814 C41.0497278,14.8065967 40.56951,15.5082459 39.9470054,15.7961019 C39.6980036,15.904048 39.431216,15.958021 39.1644283,15.958021 L39.1644283,15.958021 C38.8976407,15.958021 38.630853,15.904048 38.3818512,15.7781109 C37.7415608,15.4902549 37.2257713,14.8065967 37.2257713,13.7811094 L37.2257713,8.54572714 L35.7139746,8.54572714 L35.7139746,13.7991004 C35.7139746,15.5082459 36.6210526,16.6776612 37.7771325,17.1814093 C38.2217786,17.3793103 38.7019964,17.4872564 39.1822142,17.4872564 L39.1822142,17.4872564 C39.6624319,17.4872564 40.1426497,17.3973013 40.5872958,17.1814093 C41.707804,16.6596702 42.5793103,15.4902549 42.5793103,13.6371814 L42.5793103,10.0569715 L43.8421053,10.0569715 L43.8421053,13.7991004 C43.8421053,15.5082459 44.7491833,16.6776612 45.9052632,17.1814093 C46.3499093,17.3793103 46.830127,17.4872564 47.3103448,17.4872564 C47.7905626,17.4872564 48.2707804,17.3973013 48.7154265,17.1814093 C48.8754991,17.1094453 49.0355717,17.0194903 49.1956443,16.9115442 L49.1956443,19.1604198 C49.1956443,21.1034483 48.4664247,22.3448276 47.523775,22.8665667 C47.1858439,23.0464768 46.830127,23.1544228 46.492196,23.1544228 C46.1364791,23.1544228 45.7807623,23.0644678 45.4606171,22.8845577 C44.553539,22.3808096 43.8598911,21.1574213 43.8598911,19.1604198 L42.3480944,19.1604198 C42.3480944,21.7871064 43.3974592,23.4602699 44.7313975,24.2158921 C45.2827586,24.5217391 45.8874773,24.6836582 46.5099819,24.6836582 C47.1147005,24.6836582 47.7194192,24.5217391 48.2885662,24.2158921 L48.3241379,24.197901 L48.3597096,24.17991 L48.3597096,24.17991 L48.3952813,24.161919 L48.4130672,24.143928 L48.430853,24.143928 L48.4664247,24.125937 L48.4842105,24.107946 L48.5019964,24.089955 L48.5553539,24.053973 L48.5731397,24.035982 L48.6087114,24.017991 L48.6087114,24.017991 L48.6087114,24.017991 L48.662069,23.982009 L48.662069,23.982009 L48.662069,23.982009 L48.662069,23.982009 L48.7154265,23.946027 L48.7154265,23.946027 L48.7154265,23.946027 L48.7509982,23.928036 L48.768784,23.910045 L48.768784,23.910045 L48.8043557,23.892054 L48.8221416,23.874063 L48.8399274,23.856072 L48.8754991,23.838081 L48.8932849,23.82009 L48.9110708,23.802099 L48.9466425,23.7661169 L48.9644283,23.7481259 L48.9822142,23.7301349 L49.0177858,23.6941529 L49.0177858,23.6941529 L49.0355717,23.6761619 L49.0711434,23.6401799 L49.0711434,23.6401799 L49.1067151,23.6041979 L49.1422868,23.5862069 L49.1422868,23.5862069 L49.1778584,23.5502249 L49.1956443,23.5322339 L49.1956443,23.5322339 L49.231216,23.4962519 L49.2490018,23.4782609 L49.2667877,23.4602699 L49.3023593,23.4242879 L49.3201452,23.4062969 L49.337931,23.3883058 L49.3735027,23.3523238 L49.3912886,23.3343328 L49.4090744,23.3163418 L49.4446461,23.2803598 L49.4446461,23.2803598 L49.4624319,23.2443778 L49.4980036,23.2083958 L49.4980036,23.2083958 L49.5335753,23.1724138 L49.5513612,23.1364318 L49.5513612,23.1364318 L49.5869328,23.1004498 L49.5869328,23.1004498 L49.6047187,23.0644678 L49.6402904,23.0284858 L49.6580762,22.9925037 L49.6580762,22.9925037 L49.6758621,22.9565217 L49.6936479,22.9385307 L49.7114338,22.9205397 L49.7292196,22.8845577 L49.7292196,22.8845577 L49.7470054,22.8485757 L49.7647913,22.8125937 L49.7647913,22.8125937 L49.7825771,22.7766117 L49.800363,22.7406297 L49.800363,22.7406297 L49.8181488,22.7046477 L49.8359347,22.6686657 L49.8359347,22.6686657 L49.8537205,22.6326837 L49.8715064,22.6146927 L49.8715064,22.5967016 L49.8892922,22.5607196 L49.907078,22.5427286 L49.9248639,22.5247376 L49.9426497,22.4887556 L49.9426497,22.4707646 L49.9604356,22.4347826 L49.9782214,22.3988006 L49.9782214,22.3988006 L49.9960073,22.3628186 L50.0137931,22.3268366 L50.0137931,22.3268366 L50.0315789,22.2908546 L50.0315789,22.2728636 L50.0493648,22.2368816 L50.0671506,22.2008996 C50.4406534,21.3913043 50.6718693,20.4017991 50.6718693,19.2143928 L50.6718693,8.56371814 L49.1600726,8.56371814 L49.1600726,13.6371814 C49.1600726,14.8065967 48.6798548,15.5082459 48.0573503,15.7961019 C47.8083485,15.904048 47.5415608,15.958021 47.2747731,15.958021 C47.0079855,15.958021 46.723412,15.904048 46.4744102,15.7781109 C45.8341198,15.4902549 45.3183303,14.8065967 45.3183303,13.7811094 L45.3183303,8.56371814" id="Shape"></path>
                                        <path d="M30.200363,8.56371814 L27.4257713,8.56371814 L27.3190563,8.56371814 L27.3190563,7.05247376 L27.3190563,2.50074963 L25.8072595,2.50074963 L25.8072595,7.03448276 L25.8072595,8.54572714 L21.6453721,8.54572714 L20.2758621,8.54572714 C19.4043557,8.54572714 18.7462795,8.90554723 18.3372051,9.44527736 L18.3372051,9.44527736 C18.0882033,9.76911544 17.9459165,10.1469265 17.9103448,10.5607196 C17.8747731,10.9565217 17.9281307,11.3523238 18.0704174,11.7301349 C18.3727768,12.4857571 19.030853,13.1694153 20.0624319,13.4752624 L20.0980036,13.4932534 L21.8943739,13.9610195 L21.8943739,13.9610195 L22.1967332,14.0329835 C22.7125227,14.1949025 23.0326679,14.5187406 23.1749546,14.8605697 L23.1749546,14.8605697 C23.2283122,15.0044978 23.2638838,15.1664168 23.246098,15.3103448 C23.2283122,15.4362819 23.1927405,15.5622189 23.1215971,15.6521739 C22.9970962,15.814093 22.7480944,15.94003 22.3923775,15.94003 L17.999274,15.94003 L17.999274,17.4692654 L22.3923775,17.4692654 C23.2816697,17.4692654 23.9219601,17.1094453 24.3310345,16.5697151 C24.5800363,16.2458771 24.722323,15.868066 24.7578947,15.4542729 C24.7934664,15.0764618 24.7401089,14.6626687 24.5978221,14.2848576 L24.5978221,14.2848576 C24.2954628,13.5292354 23.6373866,12.8455772 22.6235935,12.5397301 L22.5880218,12.5217391 L20.7916515,12.053973 L20.7916515,12.053973 L20.4892922,11.982009 C19.9735027,11.82009 19.6533575,11.4962519 19.5110708,11.1544228 C19.4577132,10.9925037 19.4221416,10.8485757 19.4399274,10.7046477 C19.4577132,10.5787106 19.4932849,10.4527736 19.5644283,10.3628186 L19.5644283,10.3628186 C19.6889292,10.2008996 19.937931,10.0749625 20.2936479,10.0749625 L21.6631579,10.0749625 L25.753902,10.0749625 L25.8250454,10.0749625 L25.8250454,13.0074963 L25.8250454,13.0074963 C25.8250454,15.4542729 27.799274,17.4512744 30.2181488,17.4512744 C32.6370236,17.4512744 34.6112523,15.4542729 34.6112523,12.9895052 C34.5934664,10.5607196 32.6192377,8.56371814 30.200363,8.56371814 Z M30.200363,15.904048 C28.6174229,15.904048 27.3368421,14.6086957 27.3368421,13.0074963 L27.3368421,12.9535232 L27.3190563,12.9535232 L27.3190563,10.0929535 L30.1470054,10.0929535 L30.1470054,10.1109445 L30.200363,10.1109445 C31.7833031,10.1109445 33.0638838,11.4062969 33.0638838,13.0074963 C33.0638838,14.6086957 31.7833031,15.904048 30.200363,15.904048 Z" id="Shape"></path>
                                    </g>
                                </g>
                            </g>
                        </g>
                    </g>
                </g>
            </g>
        </g>
    </g>
</svg>